{
    "data": [
        {"Latest_Activity": "Target uploaded", "Date": "8/30/2021 3:15 PM", "Profile_Photo": "https://login.experiture.com/images/noimageMan.png","Name":"am712","Company":"","Title": ""},
        {"Latest_Activity": "Target uploaded", "Date": "8/30/2021 3:15 PM", "Profile_Photo": "https://login.experiture.com/images/noimageMan.png","Name":"am712","Company":"","Title": ""},
        {"Latest_Activity": "Target uploaded", "Date": "8/30/2021 3:15 PM", "Profile_Photo": "https://login.experiture.com/images/noimageMan.png","Name":"am712","Company":"","Title": ""},
        {"Latest_Activity": "Target uploaded", "Date": "8/30/2021 3:15 PM", "Profile_Photo": "https://login.experiture.com/images/noimageMan.png","Name":"am712","Company":"","Title": ""},
        {"Latest_Activity": "Target uploaded", "Date": "8/30/2021 3:15 PM", "Profile_Photo": "https://login.experiture.com/images/noimageMan.png","Name":"am712","Company":"","Title": ""},
        {"Latest_Activity": "Target uploaded", "Date": "8/30/2021 3:15 PM", "Profile_Photo": "https://login.experiture.com/images/noimageMan.png","Name":"am712","Company":"","Title": ""},
        {"Latest_Activity": "Target uploaded", "Date": "8/30/2021 3:15 PM", "Profile_Photo": "https://login.experiture.com/images/noimageMan.png","Name":"am712","Company":"","Title": ""},
        {"Latest_Activity": "Target uploaded", "Date": "8/30/2021 3:15 PM", "Profile_Photo": "https://login.experiture.com/images/noimageMan.png","Name":"am712","Company":"","Title": ""},
        {"Latest_Activity": "Target uploaded", "Date": "8/30/2021 3:15 PM", "Profile_Photo": "https://login.experiture.com/images/noimageMan.png","Name":"am712","Company":"","Title": ""},
        {"Latest_Activity": "Target uploaded", "Date": "8/30/2021 3:15 PM", "Profile_Photo": "https://login.experiture.com/images/noimageMan.png","Name":"am712","Company":"","Title": ""},
        {"Latest_Activity": "Target uploaded", "Date": "8/30/2021 3:15 PM", "Profile_Photo": "https://login.experiture.com/images/noimageMan.png","Name":"am712","Company":"","Title": ""}
    ]
}
    